<?xml version="1.0" encoding="UTF-8"?>
<svg width="84px" height="104px" viewBox="0 0 84 104" version="1.1" xmlns="http://www.w3.org/2000/svg" xmlns:xlink="http://www.w3.org/1999/xlink">
    <g id="Symbols" stroke="none" stroke-width="1" fill="none" fill-rule="evenodd">
        <g id="illustration-lightning-orange">
            <g>
                <polygon id="bounds" fill-rule="nonzero" points="6.11066753e-13 9.23705556e-14 84 9.23705556e-14 84 104 6.11066753e-13 104"></polygon>
                <path d="M11.2553253,57.6623098 L42.544373,57.6623098 L31.3373632,88.9180183 L72.7007671,46.3240843 L41.5304325,46.3240843 L52.1308669,14.91342 L11.2553253,57.6623098 Z M27.1482524,100 L23.0241898,97.763346 L35.7760969,62.1976001 L5.82297874,62.1976001 L4,58.4234827 L56.0386438,4 L60.1895388,6.18525401 L48.1734907,41.7887941 L78.1892178,41.7887941 L80,45.5765173 L27.1482524,100 Z" id="lightning" fill="#F7D6A3"></path>
            </g>
        </g>
    </g>
</svg>