<?xml version="1.0" encoding="UTF-8"?>
<svg width="16px" height="16px" viewBox="0 0 16 16" version="1.1" xmlns="http://www.w3.org/2000/svg" xmlns:xlink="http://www.w3.org/1999/xlink">
    <!-- Generator: sketchtool 61.1 (101010) - https://sketch.com -->
    <title>4A3C90A3-438F-4D33-B50D-A5A6F814E25D@1x</title>
    <desc>Created with sketchtool.</desc>
    <g id="Symbols" stroke="none" stroke-width="1" fill="none" fill-rule="evenodd">
        <g id="icon-clock-black">
            <g>
                <rect id="bounds" fill-rule="nonzero" x="0" y="0" width="16" height="16"></rect>
                <path d="M11.707,10.293 L9,7.586 L9,4 L7,4 L7,8.414 L10.293,11.707 L11.707,10.293 Z M8,2 C4.691,2 2,4.691 2,8 C2,11.309 4.691,14 8,14 C11.309,14 14,11.309 14,8 C14,4.691 11.309,2 8,2 L8,2 Z M8,16 C3.589,16 0,12.411 0,8 C0,3.589 3.589,0 8,0 C12.411,0 16,3.589 16,8 C16,12.411 12.411,16 8,16 L8,16 Z" id="clock" fill="#000000"></path>
            </g>
        </g>
    </g>
</svg>