<?xml version="1.0" encoding="UTF-8"?>
<svg width="16px" height="16px" viewBox="0 0 16 16" version="1.1" xmlns="http://www.w3.org/2000/svg" xmlns:xlink="http://www.w3.org/1999/xlink">
    <!-- Generator: sketchtool 61.1 (101010) - https://sketch.com -->
    <title>6823B4B2-769A-4318-8C62-BCC29831A2D9@1x</title>
    <desc>Created with sketchtool.</desc>
    <g id="Symbols" stroke="none" stroke-width="1" fill="none" fill-rule="evenodd">
        <g id="icon-next-black">
            <g>
                <rect id="bounds" fill-rule="nonzero" x="0" y="0" width="16" height="16"></rect>
                <polygon id="next" fill="#000000" points="5.39524175 0.5 4 1.8760218 10.2095165 8.00097314 4 14.1239782 5.39524175 15.5 13 8.00097314"></polygon>
            </g>
        </g>
    </g>
</svg>